 <svg xmlns="http://www.w3.org/2000/svg" width="196" height="40" viewBox="0 0 196 40">
                                <defs>
                                    <style>
                                    .a {
                                        fill: #e9fcff;
                                    }

                                    .b {
                                        fill: #5bbfcc;
                                    }

                                    .c,
                                    .d {
                                        fill: #2c3930;
                                        letter-spacing: 0.071em;
                                    }

                                    .c {
                                        font-size: 18px;
                                        font-family: Montserrat-Bold, Montserrat;
                                        font-weight: 700;
                                    }

                                    .d {
                                        font-size: 14px;
                                        font-family: Montserrat-Medium, Montserrat;
                                        font-weight: 500;
                                    }
                                    </style>
                                </defs>
                                <rect class="a" width="40" height="40" rx="6" />
                                <g transform="translate(11 13)">
                                    <path class="b"
                                        d="M4.013,14.034a.6.6,0,0,1-.594-.594v-1.76a2.131,2.131,0,0,1,1.26-1.944c2.227-.994,2.105-.96,2.279-.96h.707a.6.6,0,0,1,.578.453,1,1,0,0,0,1.948,0,.6.6,0,0,1,.578-.453c.76,0,.8-.015.949.051l2.037.909a2.131,2.131,0,0,1,1.26,1.944v1.76a.6.6,0,0,1-.594.594Zm11.833-1.8a.37.37,0,0,1-.372-.371,2.574,2.574,0,0,0-.65-1.9,2.159,2.159,0,0,0-.659-.5.372.372,0,0,1,.174-.7c.392,0,.971.008,1.857.008.169,0,.14.006,1.377.559a1.45,1.45,0,0,1,.859,1.323v.981a.6.6,0,0,1-.595.594Zm-15.251,0A.6.6,0,0,1,0,11.636v-.981A1.45,1.45,0,0,1,.859,9.332c1.241-.554,1.208-.559,1.377-.559.878,0,1.458,0,1.852-.005a.372.372,0,0,1,.172.7,2.146,2.146,0,0,0-.653.494,2.558,2.558,0,0,0-.65,1.9.372.372,0,0,1-.372.372ZM12.644,6.171a2.287,2.287,0,1,1,2.287,2.287A2.29,2.29,0,0,1,12.644,6.171Zm-11.43,0A2.287,2.287,0,1,1,3.5,8.458,2.29,2.29,0,0,1,1.214,6.171ZM5.6,3.632A3.632,3.632,0,1,1,9.23,7.264,3.636,3.636,0,0,1,5.6,3.632Z"
                                        transform="translate(0 0.007)" />
                                </g>
                           
                            </svg>