<svg xmlns="http://www.w3.org/2000/svg" width="169" height="41" viewBox="0 0 169 41">
  <defs>
    <style>
      .a {
        fill: #fffedb;
      }

      .b {
        fill: #ffe80f;
      }

      .c,
      .d {
        fill: #2c3930;
        letter-spacing: 0.071em;
      }

      .c {
        font-size: 18px;
        font-family: Montserrat-Bold, Montserrat;
        font-weight: 700;
      }

      .d {
        font-size: 14px;
        font-family: Montserrat-Medium, Montserrat;
        font-weight: 500;
      }
    </style>
  </defs>
  <rect class="a" width="40" height="40" rx="6" />
  <g transform="translate(10 11)">
    <path class="b" d="M0,9.561a9.561,9.561,0,1,1,9.561,9.561A9.572,9.572,0,0,1,0,9.561Z" />
  </g>
</svg>