
<svg xmlns="http://www.w3.org/2000/svg" width="15" height="160.76" viewBox="0 0 15 160.76">
  <g id="Group_9" data-name="Group 9" transform="translate(0 0.26)">
    <text id="Scroll_to_learn_more" data-name="Scroll to learn more" transform="translate(3 41.5) rotate(90)" fill="#222436" font-size="12" font-family="Montserrat-SemiBold, Montserrat" font-weight="600"><tspan x="0" y="0">Scroll to learn more</tspan></text>
    <g id="np_scroll_2836345_000000" transform="translate(0.5)">
      <path id="Shape" d="M0,11.591V5.936a5.936,5.936,0,1,1,11.871,0v5.656A5.936,5.936,0,1,1,0,11.591Z" transform="translate(0.224 0.14)" fill="#222436" stroke="#fcfaf5" stroke-width="0.8"/>
      <path id="Path" d="M.84,0A.825.825,0,0,0,0,.84V3.108a.825.825,0,0,0,.84.84.825.825,0,0,0,.84-.84V.84A.842.842,0,0,0,.84,0Z" transform="translate(5.32 3.669)" fill="#222436" stroke="#fcfaf5" stroke-width="1"/>
      <path id="Path-2" data-name="Path" d="M4.928.228,3.192,1.991,1.456.255a.852.852,0,1,0-1.2,1.2L2.6,3.811a.852.852,0,0,0,.588.252.858.858,0,0,0,.588-.252L6.132,1.46a.846.846,0,0,0,0-1.2.872.872,0,0,0-1.2-.027Z" transform="translate(2.968 18.701)" fill="#222436" stroke="#fcfaf5" stroke-width="0.8"/>
      <path id="Path-3" data-name="Path" d="M4.928.252,3.192,1.988,1.456.252a.852.852,0,0,0-1.2,1.2L2.6,3.808a.852.852,0,0,0,.588.252.858.858,0,0,0,.588-.252L6.132,1.456a.852.852,0,0,0-1.2-1.2Z" transform="translate(2.968 22.708)" fill="#222436" stroke="#fcfaf5" stroke-width="0.8"/>
    </g>
  </g>
</svg>
